phylum	level	distance
Cnidaria	class	0.063
Cnidaria	class	0.067
Cnidaria	class	0.087
Cnidaria	class	0.045
Cnidaria	class	0.052
Cnidaria	class	0.085
Cnidaria	class	0.096
Cnidaria	class	0.051
Cnidaria	class	0.059
Cnidaria	class	0.094
Cnidaria	class	0.025
Ctenophora	class	0.024
Ctenophora	class	0.034
Ctenophora	class	0.026
Porifera	class	0.102
Porifera	class	0.082
Porifera	class	0.120
Porifera	class	0.112
Porifera	class	0.056
Porifera	class	0.128
Porifera	class	0.084
Porifera	class	0.103
Porifera	class	0.112
Porifera	class	0.109
Porifera	class	0.119
Porifera	class	0.122
Porifera	class	0.140
Porifera	class	0.130
Porifera	class	0.131
Porifera	class	0.055
Porifera	class	0.105
Porifera	class	0.078
Porifera	class	0.117
Porifera	class	0.096
Porifera	class	0.122
Porifera	class	0.063
Porifera	class	0.094
Porifera	class	0.098
Porifera	class	0.104
Porifera	class	0.082
Porifera	class	0.115
Porifera	class	0.076
Porifera	class	0.045
Porifera	class	0.106
Porifera	class	0.072
Porifera	class	0.112
Porifera	class	0.085
Porifera	class	0.126
Porifera	class	0.046
Porifera	class	0.069
Porifera	class	0.051
Porifera	class	0.105
Porifera	class	0.073
Porifera	class	0.116
Porifera	class	0.090
Porifera	class	0.125
Porifera	class	0.038
Porifera	class	0.072
Porifera	class	0.037
Porifera	class	0.060
Porifera	class	0.104
Porifera	class	0.098
Porifera	class	0.112
Porifera	class	0.091
Porifera	class	0.115
Porifera	class	0.075
Porifera	class	0.053
Porifera	class	0.067
Porifera	class	0.066
Porifera	class	0.058
Porifera	class	0.118
Porifera	class	0.110
Cnidaria	order	0.016
Cnidaria	order	0.026
Cnidaria	order	0.024
Cnidaria	order	0.039
Cnidaria	order	0.233
Cnidaria	order	0.233
Cnidaria	order	0.004
Cnidaria	order	0.231
Cnidaria	order	0.052
Cnidaria	order	0.051
Cnidaria	order	0.236
Cnidaria	order	0.010
Cnidaria	order	0.010
Cnidaria	order	0.057
Cnidaria	order	0.234
Cnidaria	order	0.008
Cnidaria	order	0.008
Cnidaria	order	0.055
Cnidaria	order	0.007
Cnidaria	order	0.230
Cnidaria	order	0.029
Cnidaria	order	0.030
Cnidaria	order	0.049
Cnidaria	order	0.032
Cnidaria	order	0.030
Cnidaria	order	0.050
Cnidaria	order	0.041
Cnidaria	order	0.045
Cnidaria	order	0.037
Cnidaria	order	0.026
Cnidaria	order	0.047
Cnidaria	order	0.011
Cnidaria	order	0.043
Cnidaria	order	0.032
Cnidaria	order	0.011
Cnidaria	order	0.036
Cnidaria	order	0.024
Cnidaria	order	0.014
Cnidaria	order	0.022
Cnidaria	order	0.022
Cnidaria	order	0.019
Ctenophora	order	0.032
Ctenophora	order	0.016
Ctenophora	order	0.033
Ctenophora	order	0.032
Ctenophora	order	0.049
Ctenophora	order	0.032
Porifera	order	0.013
Porifera	order	0.071
Porifera	order	0.041
Porifera	order	0.034
Porifera	order	0.030
Porifera	order	0.034
Porifera	order	0.033
Porifera	order	0.031
Porifera	order	0.042
Porifera	order	0.049
Porifera	order	0.043
Porifera	order	0.043
Porifera	order	0.029
Porifera	order	0.027
Porifera	order	0.021
Porifera	order	0.020
Porifera	order	0.041
Cnidaria	family	0.004
Cnidaria	family	0.022
Cnidaria	family	0.020
Cnidaria	family	0.007
Cnidaria	family	0.020
Cnidaria	family	0.005
Cnidaria	family	0.004
Cnidaria	family	0.063
Cnidaria	family	0.013
Ctenophora	family	0.007
Ctenophora	family	0.016
Porifera	family	0.054
Porifera	family	0.008
Porifera	family	0.018
Porifera	family	0.110
Placozoa	placozoa	0.003
Placozoa	placozoa	0.008
Placozoa	placozoa	0.007
Placozoa	placozoa	0.016
Placozoa	placozoa	0.012
Placozoa	placozoa	0.010