phylum	level	distance
Cnidaria	class	0.294
Cnidaria	class	0.278
Cnidaria	class	0.346
Cnidaria	class	0.323
Cnidaria	class	0.272
Cnidaria	class	0.307
Cnidaria	class	0.300
Cnidaria	class	0.339
Cnidaria	class	0.333
Cnidaria	class	0.354
Cnidaria	class	0.277
Ctenophora	class	0.322
Ctenophora	class	0.410
Ctenophora	class	0.419
Porifera	class	0.182
Porifera	class	0.155
Porifera	class	0.199
Porifera	class	0.193
Porifera	class	0.075
Porifera	class	0.206
Porifera	class	0.334
Porifera	class	0.333
Porifera	class	0.342
Porifera	class	0.331
Porifera	class	0.184
Porifera	class	0.224
Porifera	class	0.202
Porifera	class	0.223
Porifera	class	0.354
Porifera	class	0.181
Porifera	class	0.229
Porifera	class	0.186
Porifera	class	0.231
Porifera	class	0.331
Porifera	class	0.222
Porifera	class	0.116
Porifera	class	0.176
Porifera	class	0.156
Porifera	class	0.186
Porifera	class	0.333
Porifera	class	0.160
Porifera	class	0.173
Porifera	class	0.187
Porifera	class	0.223
Porifera	class	0.176
Porifera	class	0.225
Porifera	class	0.338
Porifera	class	0.223
Porifera	class	0.200
Porifera	class	0.169
Porifera	class	0.165
Porifera	class	0.231
Porifera	class	0.184
Porifera	class	0.234
Porifera	class	0.334
Porifera	class	0.216
Porifera	class	0.201
Porifera	class	0.153
Porifera	class	0.193
Porifera	class	0.305
Porifera	class	0.319
Porifera	class	0.310
Porifera	class	0.321
Porifera	class	0.386
Porifera	class	0.319
Porifera	class	0.311
Porifera	class	0.296
Porifera	class	0.316
Porifera	class	0.326
Porifera	class	0.245
Porifera	class	0.306
Porifera	class	0.281
Cnidaria	order	0.070
Cnidaria	order	0.103
Cnidaria	order	0.125
Cnidaria	order	0.051
Cnidaria	order	0.270
Cnidaria	order	0.253
Cnidaria	order	0.100
Cnidaria	order	0.257
Cnidaria	order	0.099
Cnidaria	order	0.025
Cnidaria	order	0.279
Cnidaria	order	0.144
Cnidaria	order	0.137
Cnidaria	order	0.135
Cnidaria	order	0.069
Cnidaria	order	0.266
Cnidaria	order	0.252
Cnidaria	order	0.258
Cnidaria	order	0.279
Cnidaria	order	0.261
Cnidaria	order	0.296
Cnidaria	order	0.250
Cnidaria	order	0.313
Cnidaria	order	0.220
Cnidaria	order	0.317
Cnidaria	order	0.300
Ctenophora	order	0.493
Porifera	order	0.031
Porifera	order	0.263
Porifera	order	0.195
Porifera	order	0.073
Porifera	order	0.186
Porifera	order	0.108
Porifera	order	0.189
Porifera	order	0.096
Porifera	order	0.219
Porifera	order	0.250
Porifera	order	0.214
Porifera	order	0.222
Porifera	order	0.075
Porifera	order	0.185
Porifera	order	0.071
Porifera	order	0.095
Porifera	order	0.215
Cnidaria	family	0.013
Cnidaria	family	0.034
Cnidaria	family	0.037
Cnidaria	family	0.022
Cnidaria	family	0.032
Cnidaria	family	0.013
Cnidaria	family	0.012
Cnidaria	family	0.142
Ctenophora	family	0.248
Porifera	family	0.085
Porifera	family	0.005
Porifera	family	0.134
Porifera	family	0.150
Placozoa	placozoa	0.004
Placozoa	placozoa	0.122
Placozoa	placozoa	0.129
Placozoa	placozoa	0.171
Placozoa	placozoa	0.178
Placozoa	placozoa	0.168